{
  "$schema": "node_modules/ng-packagr/ng-package.schema.json",
  "dest": "dist",
  "whitelistedNonPeerDependencies": [
    "angular-formio",
    "datatables",
    "datatables.net",
    "datatables.net-buttons",
    "datatables.net-buttons-dt",
    "datatables.net-scroller",
    "ngx-pipes",
    "jsrsasign",
    "tslib"
  ],
  "lib": {
    "entryFile": "src/public_api.ts"
  }
}
